<?xml version="1.0" encoding="UTF-8" standalone="no"?>
<!-- Created with Inkscape (http://www.inkscape.org/) -->

<svg
   xmlns:dc="http://purl.org/dc/elements/1.1/"
   xmlns:cc="http://creativecommons.org/ns#"
   xmlns:rdf="http://www.w3.org/1999/02/22-rdf-syntax-ns#"
   xmlns:svg="http://www.w3.org/2000/svg"
   xmlns="http://www.w3.org/2000/svg"
   xmlns:sodipodi="http://sodipodi.sourceforge.net/DTD/sodipodi-0.dtd"
   xmlns:inkscape="http://www.inkscape.org/namespaces/inkscape"
   width="559.77539mm"
   height="559.77539mm"
   viewBox="0 0 559.77539 559.77539"
   version="1.1"
   id="svg8"
   inkscape:version="0.92.4 5da689c313, 2019-01-14"
   sodipodi:docname="tree3.svg">
  <defs
     id="defs2" />
  <sodipodi:namedview
     id="base"
     pagecolor="#ffffff"
     bordercolor="#666666"
     borderopacity="1.0"
     inkscape:pageopacity="0.0"
     inkscape:pageshadow="2"
     inkscape:zoom="0.0875"
     inkscape:cx="-985.3595"
     inkscape:cy="999.66614"
     inkscape:document-units="mm"
     inkscape:current-layer="layer1"
     showgrid="false"
     inkscape:window-width="1920"
     inkscape:window-height="1013"
     inkscape:window-x="1919"
     inkscape:window-y="0"
     inkscape:window-maximized="1" />
  <metadata
     id="metadata5">
    <rdf:RDF>
      <cc:Work
         rdf:about="">
        <dc:format>image/svg+xml</dc:format>
        <dc:type
           rdf:resource="http://purl.org/dc/dcmitype/StillImage" />
        <dc:title></dc:title>
      </cc:Work>
    </rdf:RDF>
  </metadata>
  <g
     inkscape:label="Layer 1"
     inkscape:groupmode="layer"
     id="layer1"
     transform="translate(517.9559,174.84444)">
    <circle
       style="opacity:1;fill:#00812b;fill-opacity:1;fill-rule:evenodd;stroke:#1b8200;stroke-width:0;stroke-linecap:round;stroke-linejoin:bevel;stroke-miterlimit:4;stroke-dasharray:none;stroke-dashoffset:0;stroke-opacity:1"
       id="path896-1-6-8-2"
       cx="-119.66867"
       cy="89.107521"
       r="39.309525" />
    <ellipse
       style="opacity:1;fill:#1eab22;fill-opacity:1;fill-rule:evenodd;stroke:#1b8200;stroke-width:0;stroke-linecap:round;stroke-linejoin:bevel;stroke-miterlimit:4;stroke-dasharray:none;stroke-dashoffset:0;stroke-opacity:1"
       id="path855-56-2"
       cx="-287.08371"
       cy="125.43172"
       rx="74.839287"
       ry="61.232143" />
    <ellipse
       style="opacity:1;fill:#1eab22;fill-opacity:1;fill-rule:evenodd;stroke:#1b8200;stroke-width:0;stroke-linecap:round;stroke-linejoin:bevel;stroke-miterlimit:4;stroke-dasharray:none;stroke-dashoffset:0;stroke-opacity:1"
       id="path855"
       cx="-292.41284"
       cy="57.827377"
       rx="74.839287"
       ry="61.232143" />
    <ellipse
       style="opacity:1;fill:#1eab22;fill-opacity:1;fill-rule:evenodd;stroke:#1b8200;stroke-width:0;stroke-linecap:round;stroke-linejoin:bevel;stroke-miterlimit:4;stroke-dasharray:none;stroke-dashoffset:0;stroke-opacity:1"
       id="path855-56-2-1"
       cx="-333.83926"
       cy="122.08332"
       rx="74.839287"
       ry="61.232143" />
    <circle
       style="opacity:1;fill:#00812b;fill-opacity:1;fill-rule:evenodd;stroke:#1b8200;stroke-width:0;stroke-linecap:round;stroke-linejoin:bevel;stroke-miterlimit:4;stroke-dasharray:none;stroke-dashoffset:0;stroke-opacity:1"
       id="path896"
       cx="-274.27005"
       cy="137.20238"
       r="39.309525" />
    <ellipse
       style="opacity:1;fill:#1eab22;fill-opacity:1;fill-rule:evenodd;stroke:#1b8200;stroke-width:0;stroke-linecap:round;stroke-linejoin:bevel;stroke-miterlimit:4;stroke-dasharray:none;stroke-dashoffset:0;stroke-opacity:1"
       id="path855-7"
       cx="-224.37753"
       cy="32.880939"
       rx="74.839287"
       ry="61.232143" />
    <ellipse
       style="opacity:1;fill:#1eab22;fill-opacity:1;fill-rule:evenodd;stroke:#1b8200;stroke-width:0;stroke-linecap:round;stroke-linejoin:bevel;stroke-miterlimit:4;stroke-dasharray:none;stroke-dashoffset:0;stroke-opacity:1"
       id="path855-5"
       cx="-155.58586"
       cy="116.79166"
       rx="74.839287"
       ry="61.232143" />
    <circle
       style="opacity:1;fill:#00812b;fill-opacity:1;fill-rule:evenodd;stroke:#1b8200;stroke-width:0;stroke-linecap:round;stroke-linejoin:bevel;stroke-miterlimit:4;stroke-dasharray:none;stroke-dashoffset:0;stroke-opacity:1"
       id="path896-9"
       cx="-138.19897"
       cy="115.27974"
       r="39.309525" />
    <ellipse
       style="opacity:1;fill:#1eab22;fill-opacity:1;fill-rule:evenodd;stroke:#1b8200;stroke-width:0;stroke-linecap:round;stroke-linejoin:bevel;stroke-miterlimit:4;stroke-dasharray:none;stroke-dashoffset:0;stroke-opacity:1"
       id="path855-3"
       cx="-162.27548"
       cy="65.2192"
       rx="74.839287"
       ry="61.232143" />
    <circle
       style="opacity:1;fill:#00812b;fill-opacity:1;fill-rule:evenodd;stroke:#1b8200;stroke-width:0;stroke-linecap:round;stroke-linejoin:bevel;stroke-miterlimit:4;stroke-dasharray:none;stroke-dashoffset:0;stroke-opacity:1"
       id="path896-1-6"
       cx="-336.10715"
       cy="132.66666"
       r="39.309525" />
    <circle
       style="opacity:1;fill:#00812b;fill-opacity:1;fill-rule:evenodd;stroke:#1b8200;stroke-width:0;stroke-linecap:round;stroke-linejoin:bevel;stroke-miterlimit:4;stroke-dasharray:none;stroke-dashoffset:0;stroke-opacity:1"
       id="path896-1-6-8-7-9-2"
       cx="-208.35118"
       cy="32.880939"
       r="39.309525" />
    <ellipse
       style="opacity:1;fill:#1eab22;fill-opacity:1;fill-rule:evenodd;stroke:#1b8200;stroke-width:0;stroke-linecap:round;stroke-linejoin:bevel;stroke-miterlimit:4;stroke-dasharray:none;stroke-dashoffset:0;stroke-opacity:1"
       id="path855-56"
       cx="-300.03265"
       cy="91.807243"
       rx="74.839287"
       ry="61.232143" />
    <circle
       style="opacity:1;fill:#00812b;fill-opacity:1;fill-rule:evenodd;stroke:#1b8200;stroke-width:0;stroke-linecap:round;stroke-linejoin:bevel;stroke-miterlimit:4;stroke-dasharray:none;stroke-dashoffset:0;stroke-opacity:1"
       id="path896-1"
       cx="-184.98711"
       cy="145.74419"
       r="39.309525" />
    <path
       style="fill:#73450d;fill-opacity:1;stroke:#000000;stroke-width:0;stroke-linecap:butt;stroke-linejoin:miter;stroke-miterlimit:4;stroke-dasharray:none;stroke-opacity:1"
       d="m -270.33467,283.94887 c -14.36309,-3.02381 -36.28571,-11.33927 -36.28571,-11.33927 0,0 -30.99405,-18.89882 -17.38691,-30.99407 13.60715,-12.09522 23.43453,9.07143 43.08929,-25.70237 19.65476,-34.77383 20.41071,-40.82144 22.67857,-56.69644 2.26786,-15.875 0,-46.86905 0,-46.86905 h 18.89881 4.53571 18.89881 c 0,0 -2.26786,30.99405 0,46.86905 2.26786,15.875 3.02381,21.92261 22.67858,56.69643 19.65476,34.77381 29.48214,13.60715 43.08929,25.70238 13.60714,12.09524 -17.38691,30.99406 -17.38691,30.99406 0,0 -21.92262,8.31546 -36.28572,11.33927 -14.3631,3.02382 -52.16071,3.02383 -66.52381,10e-6 z"
       id="path819-3-6"
       inkscape:connector-curvature="0"
       sodipodi:nodetypes="cccssccccsssccc" />
    <ellipse
       style="opacity:1;fill:#1eab22;fill-opacity:1;fill-rule:evenodd;stroke:#1b8200;stroke-width:0;stroke-linecap:round;stroke-linejoin:bevel;stroke-miterlimit:4;stroke-dasharray:none;stroke-dashoffset:0;stroke-opacity:1"
       id="path855-2"
       cx="-189.09146"
       cy="97.098885"
       rx="74.839287"
       ry="61.232143" />
    <circle
       style="opacity:1;fill:#00812b;fill-opacity:1;fill-rule:evenodd;stroke:#1b8200;stroke-width:0;stroke-linecap:round;stroke-linejoin:bevel;stroke-miterlimit:4;stroke-dasharray:none;stroke-dashoffset:0;stroke-opacity:1"
       id="path896-1-6-8-7"
       cx="-168.28729"
       cy="-11.410289"
       r="39.309525" />
    <ellipse
       style="opacity:1;fill:#1eab22;fill-opacity:1;fill-rule:evenodd;stroke:#1b8200;stroke-width:0;stroke-linecap:round;stroke-linejoin:bevel;stroke-miterlimit:4;stroke-dasharray:none;stroke-dashoffset:0;stroke-opacity:1"
       id="path855-3-7"
       cx="-149.70752"
       cy="7.0313015"
       rx="45.43964"
       ry="43.325085" />
    <circle
       style="opacity:1;fill:#00812b;fill-opacity:1;fill-rule:evenodd;stroke:#1b8200;stroke-width:0;stroke-linecap:round;stroke-linejoin:bevel;stroke-miterlimit:4;stroke-dasharray:none;stroke-dashoffset:0;stroke-opacity:1"
       id="path896-1-6-8-7-9"
       cx="-236.32141"
       cy="-43.470249"
       r="39.309525" />
    <ellipse
       style="opacity:1;fill:#1eab22;fill-opacity:1;fill-rule:evenodd;stroke:#1b8200;stroke-width:0;stroke-linecap:round;stroke-linejoin:bevel;stroke-miterlimit:4;stroke-dasharray:none;stroke-dashoffset:0;stroke-opacity:1"
       id="path855-3-7-0"
       cx="-214.9213"
       cy="-24.239227"
       rx="45.43964"
       ry="43.325085" />
    <ellipse
       style="opacity:1;fill:#1eab22;fill-opacity:1;fill-rule:evenodd;stroke:#1b8200;stroke-width:0;stroke-linecap:round;stroke-linejoin:bevel;stroke-miterlimit:4;stroke-dasharray:none;stroke-dashoffset:0;stroke-opacity:1"
       id="path855-3-7-9"
       cx="-286.95496"
       cy="-43.482635"
       rx="45.43964"
       ry="43.325085" />
    <ellipse
       style="opacity:1;fill:#1eab22;fill-opacity:1;fill-rule:evenodd;stroke:#1b8200;stroke-width:0;stroke-linecap:round;stroke-linejoin:bevel;stroke-miterlimit:4;stroke-dasharray:none;stroke-dashoffset:0;stroke-opacity:1"
       id="path855-3-7-3"
       cx="-325.57053"
       cy="1.4186493"
       rx="45.43964"
       ry="43.325085" />
    <ellipse
       style="opacity:1;fill:#1eab22;fill-opacity:1;fill-rule:evenodd;stroke:#1b8200;stroke-width:0;stroke-linecap:round;stroke-linejoin:bevel;stroke-miterlimit:4;stroke-dasharray:none;stroke-dashoffset:0;stroke-opacity:1"
       id="path855-3-7-6"
       cx="-362.98825"
       cy="91.221214"
       rx="45.43964"
       ry="43.325085" />
    <ellipse
       style="opacity:1;fill:#1eab22;fill-opacity:1;fill-rule:evenodd;stroke:#1b8200;stroke-width:0;stroke-linecap:round;stroke-linejoin:bevel;stroke-miterlimit:4;stroke-dasharray:none;stroke-dashoffset:0;stroke-opacity:1"
       id="path855-3-7-06"
       cx="-126.72234"
       cy="67.701492"
       rx="45.43964"
       ry="43.325085" />
    <circle
       style="opacity:1;fill:#00812b;fill-opacity:1;fill-rule:evenodd;stroke:#1b8200;stroke-width:0;stroke-linecap:round;stroke-linejoin:bevel;stroke-miterlimit:4;stroke-dasharray:none;stroke-dashoffset:0;stroke-opacity:1"
       id="path896-1-6-8"
       cx="-334.59521"
       cy="64.630936"
       r="39.309525" />
    <ellipse
       style="opacity:1;fill:#1eab22;fill-opacity:1;fill-rule:evenodd;stroke:#1b8200;stroke-width:0;stroke-linecap:round;stroke-linejoin:bevel;stroke-miterlimit:4;stroke-dasharray:none;stroke-dashoffset:0;stroke-opacity:1"
       id="path855-3-7-2"
       cx="-344.8139"
       cy="50.596237"
       rx="45.43964"
       ry="43.325085" />
    <circle
       style="opacity:1;fill:none;fill-opacity:1;fill-rule:evenodd;stroke:#1b8200;stroke-width:20;stroke-linecap:round;stroke-linejoin:bevel;stroke-miterlimit:4;stroke-dasharray:none;stroke-dashoffset:0;stroke-opacity:1"
       id="path815-0"
       cx="-238.06821"
       cy="105.04325"
       r="269.8877" />
  </g>
</svg>
